{
  "admin/muvirt": {
    "title": "Virtualization",
    "order": 60,
    "action": {
      "type": "firstchild",
      "recurse": "true"
    },
    "depends": {
      "uci": {"virt": true},
      "acl": [ "luci-app-muvirt" ]
    }
  },
  "admin/muvirt/status": {
    "title": "Virtual Machines",
    "order": 20,
    "action": {
      "type": "view",
      "path": "muvirt"
    }
  }
}
